[
  {
    "port": 16,
    "svcm": "Cora.LowPower.Device.HealthCheckEvent",
    "uplk": "Cora.HealthCheckInfo",
    "dnlk": "Cora.VoidMsg"
  },
  {
    "port": 17,
    "svcm": "Cora.LowPower.Device.ResetEvent",
    "uplk": "Cora.ResetInfo",
    "dnlk": "Cora.VoidMsg"
  },
  {
    "port": 18,
    "svcm": "Cora.LowPower.Device.GetConfig",
    "uplk": "Cora.LowPower.Configuration",
    "dnlk": "Cora.VoidMsg"
  },
  {
    "port": 19,
    "svcm": "Cora.LowPower.Device.SetConfig",
    "uplk": "Cora.LowPower.Configuration",
    "dnlk": "Cora.LowPower.Configuration"
  },
  {
    "port": 8,
    "svcm": "Cora.LowPower.Device.SetDefinedConfig",
    "uplk": "Cora.VoidMsg",
    "dnlk": "Cora.DefinedConfigParams"
  },
  {
    "port": 39,
    "svcm": "Cora.Motion.Sensor.NotifyEvent",
    "uplk": "Cora.Motion.EventNotification",
    "dnlk": "Cora.VoidMsg"
  },
  {
    "port": 40,
    "svcm": "Cora.Motion.Sensor.StatsReportEvent",
    "uplk": "Cora.Motion.Statistics",
    "dnlk": "Cora.VoidMsg"
  },
  {
    "port": 41,
    "svcm": "Cora.Motion.Sensor.GetSettings",
    "uplk": "Cora.Motion.Settings",
    "dnlk": "Cora.Uint32Param"
  },
  {
    "port": 42,
    "svcm": "Cora.Motion.Sensor.SetSettings",
    "uplk": "Cora.Motion.Settings",
    "dnlk": "Cora.Motion.Settings"
  },
  {
    "port": 43,
    "svcm": "Cora.Motion.Sensor.GetStats",
    "uplk": "Cora.Motion.Statistics",
    "dnlk": "Cora.Uint32Param"
  },
  {
    "port": 44,
    "svcm": "Cora.Motion.Sensor.StatsClear",
    "uplk": "Cora.VoidMsg",
    "dnlk": "Cora.Uint32Param"
  },
  {
    "port": 45,
    "svcm": "Cora.Motion.Sensor.SetItem",
    "uplk": "Cora.VoidMsg",
    "dnlk": "Cora.Motion.ItemDefinition"
  },
  {
    "port": 46,
    "svcm": "Cora.Motion.Sensor.GetItem",
    "uplk": "Cora.Motion.ItemDefinition",
    "dnlk": "Cora.Motion.ItemIdentifier"
  },
  {
    "port": 48,
    "svcm": "Cora.Temperature.Sensor.TriggerNotifyEvent",
    "uplk": "Cora.Temperature.TriggerInfo",
    "dnlk": "Cora.VoidMsg"
  },
  {
    "port": 49,
    "svcm": "Cora.Temperature.Sensor.ReportEvent",
    "uplk": "Cora.Temperature.ReportInfo",
    "dnlk": "Cora.VoidMsg"
  },
  {
    "port": 50,
    "svcm": "Cora.Temperature.Sensor.StatsReportEvent",
    "uplk": "Cora.Temperature.Statistics",
    "dnlk": "Cora.VoidMsg"
  },
  {
    "port": 51,
    "svcm": "Cora.Temperature.Sensor.GetConfig",
    "uplk": "Cora.Temperature.Configuration",
    "dnlk": "Cora.Uint32Param"
  },
  {
    "port": 52,
    "svcm": "Cora.Temperature.Sensor.SetConfig",
    "uplk": "Cora.Temperature.Configuration",
    "dnlk": "Cora.Temperature.Configuration"
  },
  {
    "port": 53,
    "svcm": "Cora.Temperature.Sensor.GetStats",
    "uplk": "Cora.Temperature.Statistics",
    "dnlk": "Cora.Uint32Param"
  },
  {
    "port": 54,
    "svcm": "Cora.Temperature.Sensor.StatsClear",
    "uplk": "Cora.Uint32Param",
    "dnlk": "Cora.VoidMsg"
  }
]
