{
  "etid": "cpucc untethered encode",
  "devid": "B4607750800009EC",
  "resultcode": 1,
  "messages": [
    {
      "msgtype": "UntetheredMsg",
      "packet": {
        "port": 8,
        "payload": "CAA="
      }
    },
    {
      "msgtype": "UntetheredMsg",
      "packet": {
        "port": 45,
        "payload": "CABaFggBEA8YACAAKAAwADgAQABIAGgAcAM="
      }
    },
    {
      "msgtype": "UntetheredMsg",
      "packet": {
        "port": 45,
        "payload": "CABaFggCEAAYACAAKAAwFDgAQABIAGgAcAM="
      }
    },
    {
      "msgtype": "UntetheredMsg",
      "packet": {
        "port": 45,
        "payload": "CABSEggBGAIgACgAUggIABAAGAAgAA=="
      }
    },
    {
      "msgtype": "UntetheredMsg",
      "packet": {
        "port": 45,
        "payload": "CABSEggCGAEgACgAUggIABAAGDwgAA=="
      }
    }
  ]
}