[
  {
    "msgtype": "UntetheredMsg",
    "content": {
      "endpoint": "Cora.LowPower.Device.SetDefinedConfig",
      "datatype": "Cora.DefinedConfigParams",
      "payload": {
        "idConfig": 1
      }
    }
  },
  {
    "msgtype": "UntetheredMsg",
    "content": {
      "endpoint": "Cora.Motion.Sensor.SetItem",
      "datatype": "Cora.Motion.ItemDefinition",
      "payload": {
        "id": 0,
        "statedef": {
          "id": 1,
          "motionMode": "DISABLED",
          "motionRate": 0,
          "accelRange": "AR4G",
          "gyroRange": "GR500DPS",
          "samplePeriod": 50,
          "removeGravity": false,
          "accelOffset": 0,
          "modeVal": 0,
          "idEventEntry": 0,
          "idEventExit": 0,
          "enableStats": 0,
          "filterWindow": 3,
          "idTrigger": 1
        }
      }
    }
  },
  {
    "msgtype": "UntetheredMsg",
    "content": {
      "endpoint": "Cora.Motion.Sensor.SetItem",
      "datatype": "Cora.Motion.ItemDefinition",
      "payload": {
        "id": 0,
        "statedef": {
          "id": 2,
          "motionMode": "SIGNIFICANTMOTION",
          "motionRate": 5,
          "accelRange": "AR4G",
          "gyroRange": "GR500DPS",
          "samplePeriod": 5,
          "removeGravity": false,
          "accelOffset": 0,
          "modeVal": 0,
          "idEventEntry": 0,
          "idEventExit": 0,
          "enableStats": 0,
          "filterWindow": 3,
          "idTrigger": [2, 3]
        }
      }
    }
  },
  {
    "msgtype": "UntetheredMsg",
    "content": {
      "endpoint": "Cora.Motion.Sensor.SetItem",
      "datatype": "Cora.Motion.ItemDefinition",
      "payload": {
        "id": 0,
        "statedef": {
          "id": 3,
          "motionMode": "SAMPLEDATA",
          "motionRate": 10,
          "accelRange": "AR4G",
          "gyroRange": "GR500DPS",
          "samplePeriod": 0,
          "removeGravity": false,
          "accelOffset": 0,
          "modeVal": 0,
          "idEventEntry": 0,
          "idEventExit": 0,
          "enableStats": 0,
          "filterWindow": 3,
          "idTrigger": [4, 5]
        }
      }
    }
  },
  {
    "msgtype": "UntetheredMsg",
    "content": {
      "endpoint": "Cora.Motion.Sensor.SetItem",
      "datatype": "Cora.Motion.ItemDefinition",
      "payload": {
        "id": 0,
        "statedef": {
          "id": 4,
          "motionMode": "WAKEONMOTION",
          "motionRate": 5,
          "accelRange": "AR4G",
          "gyroRange": "GR500DPS",
          "samplePeriod": 0,
          "removeGravity": false,
          "accelOffset": 0,
          "modeVal": 0,
          "idEventEntry": 1,
          "idEventExit": 0,
          "enableStats": 0,
          "filterWindow": 3,
          "idTrigger": 9
        }
      }
    }
  },
  {
    "msgtype": "UntetheredMsg",
    "content": {
      "endpoint": "Cora.Motion.Sensor.SetItem",
      "datatype": "Cora.Motion.ItemDefinition",
      "payload": {
        "id": 0,
        "statedef": {
          "id": 5,
          "motionMode": "WAKEONMOTION",
          "motionRate": 5,
          "accelRange": "AR4G",
          "gyroRange": "GR500DPS",
          "samplePeriod": 0,
          "removeGravity": false,
          "accelOffset": 0,
          "modeVal": 0,
          "idEventEntry": 2,
          "idEventExit": 0,
          "enableStats": 0,
          "filterWindow": 3,
          "idTrigger": 2
        }
      }
    }
  },
  {
    "msgtype": "UntetheredMsg",
    "content": {
      "endpoint": "Cora.Motion.Sensor.SetItem",
      "datatype": "Cora.Motion.ItemDefinition",
      "payload": {
        "id": 0,
        "trigger": {
          "id": 1,
          "nextState": 2,
          "invert": 0,
          "op": "OR",
          "threshold": {
            "datatypes": "SECONDS_IN_STATE",
            "op": "GTE",
            "modifiers": "VALUE",
            "threshold": 15
          }
        }
      }
    }
  },
  {
    "msgtype": "UntetheredMsg",
    "content": {
      "endpoint": "Cora.Motion.Sensor.SetItem",
      "datatype": "Cora.Motion.ItemDefinition",
      "payload": {
        "id": 0,
        "trigger": {
          "id": 2,
          "nextState": 2,
          "invert": 0,
          "op": "OR",
          "threshold": {
            "datatypes": "COUNT_ACTIVITY",
            "op": "GT",
            "modifiers": "VALUE",
            "threshold": 0
          }
        }
      }
    }
  },
  {
    "msgtype": "UntetheredMsg",
    "content": {
      "endpoint": "Cora.Motion.Sensor.SetItem",
      "datatype": "Cora.Motion.ItemDefinition",
      "payload": {
        "id": 0,
        "trigger": {
          "id": 3,
          "nextState": 3,
          "invert": 0,
          "op": "OR",
          "threshold": {
            "datatypes": "SECONDS_IN_STATE",
            "op": "GTE",
            "modifiers": "VALUE",
            "threshold": 5
          }
        }
      }
    }
  },
  {
    "msgtype": "UntetheredMsg",
    "content": {
      "endpoint": "Cora.Motion.Sensor.SetItem",
      "datatype": "Cora.Motion.ItemDefinition",
      "payload": {
        "id": 0,
        "trigger": {
          "id": 4,
          "nextState": 4,
          "op": "AND",
          "composite": {
            "idTriggers": [6, 7]
          }
        }
      }
    }
  },
  {
    "msgtype": "UntetheredMsg",
    "content": {
      "endpoint": "Cora.Motion.Sensor.SetItem",
      "datatype": "Cora.Motion.ItemDefinition",
      "payload": {
        "id": 0,
        "trigger": {
          "id": 4,
          "nextState": 5,
          "op": "AND",
          "composite": {
            "idTriggers": [6, 8]
          }
        }
      }
    }
  },
  {
    "msgtype": "UntetheredMsg",
    "content": {
      "endpoint": "Cora.Motion.Sensor.SetItem",
      "datatype": "Cora.Motion.ItemDefinition",
      "payload": {
        "id": 0,
        "trigger": {
          "id": 6,
          "nextState": 0,
          "threshold": {
            "datatypes": "SAMPLES_IN_STATE",
            "op": "GTE",
            "modifiers": "VALUE",
            "threshold": 6
          }
        }
      }
    }
  },
  {
    "msgtype": "UntetheredMsg",
    "content": {
      "endpoint": "Cora.Motion.Sensor.SetItem",
      "datatype": "Cora.Motion.ItemDefinition",
      "payload": {
        "id": 0,
        "trigger": {
          "id": 7,
          "nextState": 0,
          "threshold": {
            "datatypes": "LINEAR_XAXIS",
            "op": "GT",
            "modifiers": 20,
            "threshold": 4500
          }
        }
      }
    }
  },
  {
    "msgtype": "UntetheredMsg",
    "content": {
      "endpoint": "Cora.Motion.Sensor.SetItem",
      "datatype": "Cora.Motion.ItemDefinition",
      "payload": {
        "id": 0,
        "trigger": {
          "id": 8,
          "nextState": 0,
          "threshold": {
            "datatypes": "LINEAR_XAXIS",
            "op": "LTE",
            "modifiers": 20,
            "threshold": 4500
          }
        }
      }
    }
  },
  {
    "msgtype": "UntetheredMsg",
    "content": {
      "endpoint": "Cora.Motion.Sensor.SetItem",
      "datatype": "Cora.Motion.ItemDefinition",
      "payload": {
        "id": 0,
        "trigger": {
          "id": 9,
          "nextState": 2,
          "invert": 0,
          "op": "OR",
          "threshold": {
            "datatypes": "COUNT_ACTIVITY",
            "op": "GT",
            "modifiers": "VALUE",
            "threshold": 0
          }
        }
      }
    }
  }
]
